^C:\USERS\LANCE\DOCUMENTS\SY19T1-BASPRG2-TG002-BACALE-LANCE-MARCUS-IVO\EX 2\EX 2\EX2-1 VERSION1FUNTION.CPP
/c /ZI /JMC /nologo /W3 /WX- /diagnostics:column /sdl /Od /Oy- /D _MBCS /Gm- /EHsc /RTC1 /MDd /GS /fp:precise /permissive- /Zc:wchar_t /Zc:forScope /Zc:inline /Fo"DEBUG\\" /Fd"DEBUG\VC142.PDB" /Gd /TP /analyze- /FC C:\USERS\LANCE\DOCUMENTS\SY19T1-BASPRG2-TG002-BACALE-LANCE-MARCUS-IVO\EX 2\EX 2\EX2-1 VERSION1FUNTION.CPP
^C:\USERS\LANCE\DOCUMENTS\SY19T1-BASPRG2-TG002-BACALE-LANCE-MARCUS-IVO\EX 2\EX 2\EX2-1.CPP
/c /ZI /JMC /nologo /W3 /WX- /diagnostics:column /sdl /Od /Oy- /D _MBCS /Gm- /EHsc /RTC1 /MDd /GS /fp:precise /permissive- /Zc:wchar_t /Zc:forScope /Zc:inline /Fo"DEBUG\\" /Fd"DEBUG\VC142.PDB" /Gd /TP /analyze- /FC C:\USERS\LANCE\DOCUMENTS\SY19T1-BASPRG2-TG002-BACALE-LANCE-MARCUS-IVO\EX 2\EX 2\EX2-1.CPP
